
           EXEC SQL DECLARE ENY_ENCMBR_YRS_V TABLE
           (USER_CD            CHAR(8) NOT NULL WITH DEFAULT,
           LAST_ACTVY_DT       CHAR(5) NOT NULL WITH DEFAULT,
           FSCL_CC             CHAR(2) NOT NULL,
           FSCL_YR             CHAR(2) NOT NULL,
           ORGN_ENCMBR_AMT_01  DECIMAL(12,2) NOT NULL WITH DEFAULT,
           ORGN_ENCMBR_AMT_02  DECIMAL(12,2) NOT NULL WITH DEFAULT,
           ORGN_ENCMBR_AMT_03  DECIMAL(12,2) NOT NULL WITH DEFAULT,
           ORGN_ENCMBR_AMT_04  DECIMAL(12,2) NOT NULL WITH DEFAULT,
           ORGN_ENCMBR_AMT_05  DECIMAL(12,2) NOT NULL WITH DEFAULT,
           ORGN_ENCMBR_AMT_06  DECIMAL(12,2) NOT NULL WITH DEFAULT,
           ORGN_ENCMBR_AMT_07  DECIMAL(12,2) NOT NULL WITH DEFAULT,
           ORGN_ENCMBR_AMT_08  DECIMAL(12,2) NOT NULL WITH DEFAULT,
           ORGN_ENCMBR_AMT_09  DECIMAL(12,2) NOT NULL WITH DEFAULT,
           ORGN_ENCMBR_AMT_10  DECIMAL(12,2) NOT NULL WITH DEFAULT,
           ORGN_ENCMBR_AMT_11  DECIMAL(12,2) NOT NULL WITH DEFAULT,
           ORGN_ENCMBR_AMT_12  DECIMAL(12,2) NOT NULL WITH DEFAULT,
           ORGN_ENCMBR_AMT_13  DECIMAL(12,2) NOT NULL WITH DEFAULT,
           ORGN_ENCMBR_AMT_14  DECIMAL(12,2) NOT NULL WITH DEFAULT,
           SMRY_ENCMBR_ADJ_01  DECIMAL(12,2) NOT NULL WITH DEFAULT,
           SMRY_ENCMBR_ADJ_02  DECIMAL(12,2) NOT NULL WITH DEFAULT,
           SMRY_ENCMBR_ADJ_03  DECIMAL(12,2) NOT NULL WITH DEFAULT,
           SMRY_ENCMBR_ADJ_04  DECIMAL(12,2) NOT NULL WITH DEFAULT,
           SMRY_ENCMBR_ADJ_05  DECIMAL(12,2) NOT NULL WITH DEFAULT,
           SMRY_ENCMBR_ADJ_06  DECIMAL(12,2) NOT NULL WITH DEFAULT,
           SMRY_ENCMBR_ADJ_07  DECIMAL(12,2) NOT NULL WITH DEFAULT,
           SMRY_ENCMBR_ADJ_08  DECIMAL(12,2) NOT NULL WITH DEFAULT,
           SMRY_ENCMBR_ADJ_09  DECIMAL(12,2) NOT NULL WITH DEFAULT,
           SMRY_ENCMBR_ADJ_10  DECIMAL(12,2) NOT NULL WITH DEFAULT,
           SMRY_ENCMBR_ADJ_11  DECIMAL(12,2) NOT NULL WITH DEFAULT,
           SMRY_ENCMBR_ADJ_12  DECIMAL(12,2) NOT NULL WITH DEFAULT,
           SMRY_ENCMBR_ADJ_13  DECIMAL(12,2) NOT NULL WITH DEFAULT,
           SMRY_ENCMBR_ADJ_14  DECIMAL(12,2) NOT NULL WITH DEFAULT,
           SMRY_ENCMBR_LQD_01  DECIMAL(12,2) NOT NULL WITH DEFAULT,
           SMRY_ENCMBR_LQD_02  DECIMAL(12,2) NOT NULL WITH DEFAULT,
           SMRY_ENCMBR_LQD_03  DECIMAL(12,2) NOT NULL WITH DEFAULT,
           SMRY_ENCMBR_LQD_04  DECIMAL(12,2) NOT NULL WITH DEFAULT,
           SMRY_ENCMBR_LQD_05  DECIMAL(12,2) NOT NULL WITH DEFAULT,
           SMRY_ENCMBR_LQD_06  DECIMAL(12,2) NOT NULL WITH DEFAULT,
           SMRY_ENCMBR_LQD_07  DECIMAL(12,2) NOT NULL WITH DEFAULT,
           SMRY_ENCMBR_LQD_08  DECIMAL(12,2) NOT NULL WITH DEFAULT,
           SMRY_ENCMBR_LQD_09  DECIMAL(12,2) NOT NULL WITH DEFAULT,
           SMRY_ENCMBR_LQD_10  DECIMAL(12,2) NOT NULL WITH DEFAULT,
           SMRY_ENCMBR_LQD_11  DECIMAL(12,2) NOT NULL WITH DEFAULT,
           SMRY_ENCMBR_LQD_12  DECIMAL(12,2) NOT NULL WITH DEFAULT,
           SMRY_ENCMBR_LQD_13  DECIMAL(12,2) NOT NULL WITH DEFAULT,
           SMRY_ENCMBR_LQD_14  DECIMAL(12,2) NOT NULL WITH DEFAULT,
           BEG_ENCMBR_AMT      DECIMAL(12,2) NOT NULL WITH DEFAULT,
           BEG_ENCMBR_ADJ      DECIMAL(12,2) NOT NULL WITH DEFAULT,
           BEG_ENCMBR_LQD      DECIMAL(12,2) NOT NULL WITH DEFAULT,
           FK_ECD_ENCMBR_NBR   CHAR(8) NOT NULL,
           FK_ECD_DOC_TYP_SEQ  DECIMAL(4) NOT NULL,
           FK_ECD_ITEM_NBR     DECIMAL(4) NOT NULL,
           FK_ECD_SEQ_NBR      DECIMAL(4) NOT NULL)
           END-EXEC.
       01  ENY-ENY-ENCMBR-YRS.
           05  ENY-USER-CD                    PIC X(08).
           05  ENY-LAST-ACTVY-DT              PIC X(05).
           05  ENY-FSCL-CC                    PIC X(02).
           05  ENY-FSCL-YR                    PIC X(02).
           05  ENY-ORGN-ENCMBR-AMT-01         PIC S9(10)V99      COMP-3.
           05  ENY-ORGN-ENCMBR-AMT-02         PIC S9(10)V99      COMP-3.
           05  ENY-ORGN-ENCMBR-AMT-03         PIC S9(10)V99      COMP-3.
           05  ENY-ORGN-ENCMBR-AMT-04         PIC S9(10)V99      COMP-3.
           05  ENY-ORGN-ENCMBR-AMT-05         PIC S9(10)V99      COMP-3.
           05  ENY-ORGN-ENCMBR-AMT-06         PIC S9(10)V99      COMP-3.
           05  ENY-ORGN-ENCMBR-AMT-07         PIC S9(10)V99      COMP-3.
           05  ENY-ORGN-ENCMBR-AMT-08         PIC S9(10)V99      COMP-3.
           05  ENY-ORGN-ENCMBR-AMT-09         PIC S9(10)V99      COMP-3.
           05  ENY-ORGN-ENCMBR-AMT-10         PIC S9(10)V99      COMP-3.
           05  ENY-ORGN-ENCMBR-AMT-11         PIC S9(10)V99      COMP-3.
           05  ENY-ORGN-ENCMBR-AMT-12         PIC S9(10)V99      COMP-3.
           05  ENY-ORGN-ENCMBR-AMT-13         PIC S9(10)V99      COMP-3.
           05  ENY-ORGN-ENCMBR-AMT-14         PIC S9(10)V99      COMP-3.
           05  ENY-SMRY-ENCMBR-ADJ-01         PIC S9(10)V99      COMP-3.
           05  ENY-SMRY-ENCMBR-ADJ-02         PIC S9(10)V99      COMP-3.
           05  ENY-SMRY-ENCMBR-ADJ-03         PIC S9(10)V99      COMP-3.
           05  ENY-SMRY-ENCMBR-ADJ-04         PIC S9(10)V99      COMP-3.
           05  ENY-SMRY-ENCMBR-ADJ-05         PIC S9(10)V99      COMP-3.
           05  ENY-SMRY-ENCMBR-ADJ-06         PIC S9(10)V99      COMP-3.
           05  ENY-SMRY-ENCMBR-ADJ-07         PIC S9(10)V99      COMP-3.
           05  ENY-SMRY-ENCMBR-ADJ-08         PIC S9(10)V99      COMP-3.
           05  ENY-SMRY-ENCMBR-ADJ-09         PIC S9(10)V99      COMP-3.
           05  ENY-SMRY-ENCMBR-ADJ-10         PIC S9(10)V99      COMP-3.
           05  ENY-SMRY-ENCMBR-ADJ-11         PIC S9(10)V99      COMP-3.
           05  ENY-SMRY-ENCMBR-ADJ-12         PIC S9(10)V99      COMP-3.
           05  ENY-SMRY-ENCMBR-ADJ-13         PIC S9(10)V99      COMP-3.
           05  ENY-SMRY-ENCMBR-ADJ-14         PIC S9(10)V99      COMP-3.
           05  ENY-SMRY-ENCMBR-LQD-01         PIC S9(10)V99      COMP-3.
           05  ENY-SMRY-ENCMBR-LQD-02         PIC S9(10)V99      COMP-3.
           05  ENY-SMRY-ENCMBR-LQD-03         PIC S9(10)V99      COMP-3.
           05  ENY-SMRY-ENCMBR-LQD-04         PIC S9(10)V99      COMP-3.
           05  ENY-SMRY-ENCMBR-LQD-05         PIC S9(10)V99      COMP-3.
           05  ENY-SMRY-ENCMBR-LQD-06         PIC S9(10)V99      COMP-3.
           05  ENY-SMRY-ENCMBR-LQD-07         PIC S9(10)V99      COMP-3.
           05  ENY-SMRY-ENCMBR-LQD-08         PIC S9(10)V99      COMP-3.
           05  ENY-SMRY-ENCMBR-LQD-09         PIC S9(10)V99      COMP-3.
           05  ENY-SMRY-ENCMBR-LQD-10         PIC S9(10)V99      COMP-3.
           05  ENY-SMRY-ENCMBR-LQD-11         PIC S9(10)V99      COMP-3.
           05  ENY-SMRY-ENCMBR-LQD-12         PIC S9(10)V99      COMP-3.
           05  ENY-SMRY-ENCMBR-LQD-13         PIC S9(10)V99      COMP-3.
           05  ENY-SMRY-ENCMBR-LQD-14         PIC S9(10)V99      COMP-3.
           05  ENY-BEG-ENCMBR-AMT             PIC S9(10)V99      COMP-3.
           05  ENY-BEG-ENCMBR-ADJ             PIC S9(10)V99      COMP-3.
           05  ENY-BEG-ENCMBR-LQD             PIC S9(10)V99      COMP-3.
           05  ENY-FK-ECD-ENCMBR-NBR          PIC X(08).
           05  ENY-FK-ECD-DOC-TYP-SEQ         PIC S9(04)         COMP-3.
           05  ENY-FK-ECD-ITEM-NBR            PIC S9(04)         COMP-3.
           05  ENY-FK-ECD-SEQ-NBR             PIC S9(04)         COMP-3.
